codefortextanalysis.R
…
#create a column that is the word countcout for each players analysis
names(text_df)[c(2,3)]<-c("word","linenumber")
text_df$wordocunt<- nchar(text_df$word)

#make every single word into its own observation for each player
text_df <- text_df %>%
  ungroup() %>%
  unnest_tokens(text, word)

#this is the stop text data(filler words to be deleted)
data(stop_words)
stop_words

## # A tibble: 1,149 x 2
##    word        lexicon
##    <chr>       <chr>  
##  1 a           SMART  
##  2 a's         SMART  
##  3 able        SMART  
##  4 about       SMART  
##  5 above       SMART  
##  6 according   SMART  
##  7 accordingly SMART  
##  8 across      SMART  
##  9 actually    SMART  
## 10 after       SMART  
## # ... with 1,139 more rows
…
#show all the words from the bing lexicon that are in the "positive" category
bing <- get_sentiments("bing") %>% 
  filter(sentiment == "positive")

#show which words from the text are "joy"
text_df %>%
  inner_join(nrc_joy) %>%
  count(text, sort = TRUE)

## Joining, by = "text"

## # A tibble: 204 x 2
##    text            n
##    <chr>       <int>
##  1 improve       695
##  2 jump          566
##  3 basketball    554
##  4 excellent     541
##  5 create        423
##  6 score         412
##  7 elite         360
##  8 pretty        217
##  9 improvement   198
## 10 weight        179
## # ... with 194 more rows
…
